[2020-04-23T19:21:27.229968+02:00] main.ERROR: database error:Table 'day04slimblog.dfsd' doesn't exist [] []
[2020-04-23T19:21:27.235968+02:00] main.ERROR: SQL query error:select * from dfsd [] []
[2020-04-24T00:49:32.060336+02:00] main.ERROR: database error:You have an error in your SQL syntax; check the manual that corresponds to your MariaDB server version for the right syntax to use near '-5, 5' at line 1 [] []
[2020-04-24T00:49:32.065337+02:00] main.ERROR: SQL query error:SELECT u.username as author,DATE_FORMAT(c.creationTime, '%b %e, %Y') as postdate,DATE_FORMAT(c.creationTime, '%H:%i') as posttime,c.body FROM comment c inner join user u on c.authorId = u.id where c.articleId=15 ORDER BY c.id DESC LIMIT -5, 5 [] []
[2020-04-24T01:17:30.811264+02:00] main.ERROR: database error:You have an error in your SQL syntax; check the manual that corresponds to your MariaDB server version for the right syntax to use near '-5, 5' at line 1 [] []
[2020-04-24T01:17:30.812264+02:00] main.ERROR: SQL query error:SELECT a.id,a.title,CONCAT(SUBSTRING(a.body,1,50),'......') as body,DATE_FORMAT(a.creationTime, '%b %e, %Y') as postdate,DATE_FORMAT(a.creationTime, '%H:%i') as posttime,u.username as author FROM article a inner join user u on a.authorId=u.id ORDER BY a.id DESC LIMIT -5, 5 [] []
[2020-04-24T15:30:36.606023+02:00] main.ERROR: database error:Unknown column 'a.titlea.body' in 'field list' [] []
[2020-04-24T15:30:36.610023+02:00] main.ERROR: SQL query error:SELECT a.id,a.titlea.body,DATE_FORMAT(a.creationTime, '%b %e, %Y') as postdate,DATE_FORMAT(a.creationTime, '%H:%i') as posttime,u.username as author FROM article a inner join user u on a.authorId=u.id ORDER BY a.id DESC LIMIT 0, 5 [] []
[2020-04-27T15:59:14.746811+02:00] main.ERROR: database error:Table 'quiz1slimshout20.user' doesn't exist [] []
[2020-04-27T15:59:14.747811+02:00] main.ERROR: SQL query error:SELECT * FROM user WHERE username='jerry' [] []
[2020-04-27T16:01:23.910658+02:00] main.ERROR: database error:Table 'quiz1slimshout20.user' doesn't exist [] []
[2020-04-27T16:01:23.911658+02:00] main.ERROR: SQL query error:SELECT * FROM user WHERE username='qwer' [] []
[2020-04-27T16:01:23.985662+02:00] main.ERROR: database error:Table 'quiz1slimshout20.user' doesn't exist [] []
[2020-04-27T16:01:23.987662+02:00] main.ERROR: SQL query error:SELECT * FROM user WHERE username='qwer' [] []
[2020-04-27T16:01:26.811975+02:00] main.ERROR: database error:Table 'quiz1slimshout20.user' doesn't exist [] []
[2020-04-27T16:01:26.813975+02:00] main.ERROR: SQL query error:SELECT * FROM user WHERE username='qwer' [] []
[2020-04-27T16:01:26.889979+02:00] main.ERROR: database error:Table 'quiz1slimshout20.user' doesn't exist [] []
[2020-04-27T16:01:26.891979+02:00] main.ERROR: SQL query error:SELECT * FROM user WHERE username='qwer' [] []
[2020-04-27T16:01:36.560028+02:00] main.ERROR: database error:Table 'quiz1slimshout20.user' doesn't exist [] []
[2020-04-27T16:01:36.562028+02:00] main.ERROR: SQL query error:SELECT * FROM user WHERE username='qwer' [] []
[2020-04-27T16:01:36.626031+02:00] main.ERROR: database error:Table 'quiz1slimshout20.user' doesn't exist [] []
[2020-04-27T16:01:36.627031+02:00] main.ERROR: SQL query error:SELECT * FROM user WHERE username='qwer' [] []
[2020-04-27T16:01:37.297070+02:00] main.ERROR: database error:Table 'quiz1slimshout20.user' doesn't exist [] []
[2020-04-27T16:01:37.299070+02:00] main.ERROR: SQL query error:SELECT * FROM user WHERE username='qwer' [] []
[2020-04-27T16:01:37.365074+02:00] main.ERROR: database error:Table 'quiz1slimshout20.user' doesn't exist [] []
[2020-04-27T16:01:37.366074+02:00] main.ERROR: SQL query error:SELECT * FROM user WHERE username='qwer' [] []
[2020-04-27T16:01:37.918105+02:00] main.ERROR: database error:Table 'quiz1slimshout20.user' doesn't exist [] []
[2020-04-27T16:01:37.919105+02:00] main.ERROR: SQL query error:SELECT * FROM user WHERE username='qwer' [] []
[2020-04-27T16:01:37.988109+02:00] main.ERROR: database error:Table 'quiz1slimshout20.user' doesn't exist [] []
[2020-04-27T16:01:37.990109+02:00] main.ERROR: SQL query error:SELECT * FROM user WHERE username='qwer' [] []
[2020-04-27T16:01:59.172492+02:00] main.ERROR: database error:Table 'quiz1slimshout20.user' doesn't exist [] []
[2020-04-27T16:01:59.173492+02:00] main.ERROR: SQL query error:SELECT * FROM user WHERE username='qwer' [] []
[2020-04-27T17:18:55.678890+02:00] main.ERROR: database error:You have an error in your SQL syntax; check the manual that corresponds to your MariaDB server version for the right syntax to use near 'order by username' at line 1 [] []
[2020-04-27T17:18:55.680890+02:00] main.ERROR: SQL query error:SELECT username FROM users order order by username [] []
